%!PS-Adobe-3.0 EPSF-3.0
%%Creator: PlantUML v1.2018.01      
%%Title: noTitle
%%BoundingBox: 0 0 501 350
%%ColorUsage: Color
%%Origin: 0 0
%%EndComments

gsave
0 350 translate
1 -1 scale
/simplerect {
newpath moveto 1 index 0 rlineto
0 exch rlineto
neg 0 rlineto
} def
/roundrect {
newpath
dup 3 index add 2 index 2 index add 2 index 180 270 arc
2 index 5 index add 1 index sub 2 index 2 index add 2 index 270 0 arc
2 index 5 index add 1 index sub 2 index 5 index add 2 index sub 2 index 0 90 arc
dup 3 index add 2 index 5 index add 2 index sub 2 index 90 180 arc
pop pop pop pop pop 
} def
/rquadto {
3 index 3 index 4 2 roll rcurveto
} def
/P$r {
-0.625 0 -1.1328 -0.2266 rquadto
-0.5078 -0.2266 -0.8828 -0.6641 rquadto
-0.375 -0.4375 -0.5781 -1.0859 rquadto
-0.2031 -0.6484 -0.2031 -1.4766 rquadto
0 -0.8281 0.1875 -1.4922 rquadto
0.1875 -0.6641 0.5313 -1.1172 rquadto
0.3438 -0.4531 0.8125 -0.6953 rquadto
0.4688 -0.2422 1.0469 -0.2422 rquadto
0.5625 0 1.0156 0.2344 rquadto
0.4531 0.2344 0.7656 0.6563 rquadto
0.3125 0.4219 0.4766 1.0156 rquadto
0.1641 0.5938 0.1641 1.3125 rquadto
0 0.7344 rlineto
-3.8125 0 rlineto
0.0313 1.0469 0.4453 1.5391 rquadto
0.4141 0.4922 1.2422 0.4922 rquadto
0.2813 0 0.5156 -0.0391 rquadto
0.2344 -0.0391 0.4609 -0.0938 rquadto
0.2266 -0.0547 0.4297 -0.1484 rquadto
0.2031 -0.0938 0.4219 -0.2031 rquadto
0 1.0313 rlineto
-0.2188 0.125 -0.4375 0.2109 rquadto
-0.2188 0.0859 -0.4531 0.1484 rquadto
-0.2344 0.0625 -0.4766 0.0859 rquadto
-0.2422 0.0234 -0.5391 0.0234 rquadto
closepath
} def
/P$1f {
0 -0.2813 0.0547 -0.4688 rquadto
0.0547 -0.1875 0.1563 -0.3047 rquadto
0.1016 -0.1172 0.2344 -0.1719 rquadto
0.1328 -0.0547 0.2734 -0.0547 rquadto
0.1563 0 0.2891 0.0547 rquadto
0.1328 0.0547 0.2344 0.1719 rquadto
0.1016 0.1172 0.1563 0.3047 rquadto
0.0547 0.1875 0.0547 0.4688 rquadto
0 0.2656 -0.0547 0.4531 rquadto
-0.0547 0.1875 -0.1563 0.3125 rquadto
-0.1016 0.125 -0.2344 0.1797 rquadto
-0.1328 0.0547 -0.2891 0.0547 rquadto
-0.1406 0 -0.2734 -0.0547 rquadto
-0.1328 -0.0547 -0.2344 -0.1797 rquadto
-0.1016 -0.125 -0.1563 -0.3125 rquadto
-0.0547 -0.1875 -0.0547 -0.4531 rquadto
closepath
} def
/P$d {
0 0.6406 -0.2031 1.1484 rquadto
-0.2031 0.5078 -0.5859 0.8672 rquadto
-0.3828 0.3594 -0.9219 0.5391 rquadto
-0.5391 0.1797 -1.2266 0.1797 rquadto
-0.6563 0 -1.2266 -0.1172 rquadto
-0.5703 -0.1172 -0.9609 -0.3516 rquadto
0 -1.2188 rlineto
0.1875 0.125 0.4375 0.2422 rquadto
0.25 0.1172 0.5234 0.2109 rquadto
0.2734 0.0938 0.5625 0.1484 rquadto
0.2891 0.0547 0.5703 0.0547 rquadto
0.9063 0 1.3359 -0.4063 rquadto
0.4297 -0.4063 0.4297 -1.1719 rquadto
0 -0.3594 -0.0781 -0.625 rquadto
-0.0781 -0.2656 -0.2891 -0.4922 rquadto
-0.2109 -0.2266 -0.5547 -0.4297 rquadto
-0.3438 -0.2031 -0.8594 -0.4531 rquadto
-0.5 -0.2344 -0.875 -0.5156 rquadto
-0.375 -0.2813 -0.6094 -0.625 rquadto
-0.2344 -0.3438 -0.3516 -0.7813 rquadto
-0.1172 -0.4375 -0.1172 -1 rquadto
0 -0.5781 0.1953 -1.0391 rquadto
0.1953 -0.4609 0.5547 -0.7813 rquadto
0.3594 -0.3203 0.8594 -0.4844 rquadto
0.5 -0.1641 1.0938 -0.1641 rquadto
0.7344 0 1.3281 0.1563 rquadto
0.5938 0.1563 1.0469 0.3906 rquadto
-0.4063 1.0625 rlineto
-0.375 -0.2344 -0.8672 -0.4063 rquadto
-0.4922 -0.1719 -1.0234 -0.1719 rquadto
-0.7188 0 -1.1172 0.3906 rquadto
-0.3984 0.3906 -0.3984 1.0625 rquadto
0 0.375 0.0859 0.6563 rquadto
0.0859 0.2813 0.2813 0.5 rquadto
0.1953 0.2188 0.5156 0.4141 rquadto
0.3203 0.1953 0.7891 0.4141 rquadto
0.5156 0.25 0.8984 0.5 rquadto
0.3828 0.25 0.6406 0.5703 rquadto
0.2578 0.3203 0.3906 0.7344 rquadto
0.1328 0.4141 0.1328 0.9922 rquadto
} def
/P$13 {
0.125 0 0.2656 -0.0156 rquadto
0.1406 -0.0156 0.2813 -0.0313 rquadto
0.1406 -0.0156 0.25 -0.0469 rquadto
0.1094 -0.0313 0.1719 -0.0469 rquadto
0 0.8906 rlineto
-0.0781 0.0313 -0.2109 0.0703 rquadto
-0.1328 0.0391 -0.2891 0.0703 rquadto
-0.1563 0.0313 -0.3203 0.0469 rquadto
-0.1641 0.0156 -0.3203 0.0156 rquadto
-0.4063 0 -0.7422 -0.1016 rquadto
-0.3359 -0.1016 -0.5859 -0.3438 rquadto
-0.25 -0.2422 -0.3906 -0.6641 rquadto
-0.1406 -0.4219 -0.1406 -1.0625 rquadto
0 -4 rlineto
-1 0 rlineto
0 -0.5 rlineto
1 -0.4688 rlineto
0.5 -1.4531 rlineto
0.6563 0 rlineto
0 1.5938 rlineto
1.7969 0 rlineto
0 0.8281 rlineto
-1.7969 0 rlineto
0 4 rlineto
0 0.6094 0.2031 0.9141 rquadto
0.2031 0.3047 0.6719 0.3047 rquadto
} def
/P$17 {
0 1.2813 0.4297 1.9219 rquadto
0.4297 0.6406 1.3828 0.6406 rquadto
0.9688 0 1.3906 -0.6406 rquadto
0.4219 -0.6406 0.4219 -1.9219 rquadto
0 -1.2656 -0.4297 -1.8984 rquadto
-0.4297 -0.6328 -1.3828 -0.6328 rquadto
-0.9688 0 -1.3906 0.6328 rquadto
-0.4219 0.6328 -0.4219 1.8984 rquadto
} def
/P$15 {
-0.0469 0 rlineto
-0.1563 0.2188 -0.3516 0.4141 rquadto
-0.1953 0.1953 -0.4453 0.3359 rquadto
-0.25 0.1406 -0.5703 0.2266 rquadto
-0.3203 0.0859 -0.7109 0.0859 rquadto
-0.625 0 -1.1328 -0.2188 rquadto
-0.5078 -0.2188 -0.875 -0.6641 rquadto
-0.3672 -0.4453 -0.5625 -1.0938 rquadto
-0.1953 -0.6484 -0.1953 -1.5078 rquadto
0 -0.875 0.1953 -1.5313 rquadto
0.1953 -0.6563 0.5625 -1.0938 rquadto
0.3672 -0.4375 0.875 -0.6641 rquadto
0.5078 -0.2266 1.1328 -0.2266 rquadto
0.3906 0 0.7109 0.0859 rquadto
0.3203 0.0859 0.5703 0.2188 rquadto
0.25 0.1328 0.4531 0.3203 rquadto
0.2031 0.1875 0.3438 0.3906 rquadto
0.0781 0 rlineto
-0.0156 -0.2344 -0.0469 -0.4375 rquadto
0 -0.1719 -0.0156 -0.3594 rquadto
-0.0156 -0.1875 -0.0156 -0.2969 rquadto
0 -2.9219 rlineto
1.1563 0 rlineto
0 10 rlineto
-0.9375 0 rlineto
-0.1719 -1.0625 rlineto
closepath
} def
/P$1a {
-1.125 0 rlineto
0 -5.2656 rlineto
0 -0.25 0.0078 -0.5313 rquadto
0.0078 -0.2813 0.0156 -0.5938 rquadto
0.0078 -0.3125 0.0156 -0.5938 rquadto
0.0078 -0.2813 0.0234 -0.5 rquadto
-0.1094 0.125 -0.1797 0.2031 rquadto
-0.0703 0.0781 -0.1406 0.1563 rquadto
-0.0703 0.0781 -0.1484 0.1641 rquadto
-0.0781 0.0859 -0.1875 0.1953 rquadto
-0.7813 0.7656 rlineto
-0.5 -0.875 rlineto
2.0469 -2.125 rlineto
0.9531 0 rlineto
0 9 rlineto
closepath
} def
/P$1b {
0 -4.4219 rlineto
0 -0.8125 -0.3828 -1.2188 rquadto
-0.3828 -0.4063 -1.2109 -0.4063 rquadto
-0.5938 0 -0.9922 0.1641 rquadto
-0.3984 0.1641 -0.6406 0.4844 rquadto
-0.2422 0.3203 -0.3516 0.7813 rquadto
-0.1094 0.4609 -0.1094 1.0547 rquadto
0 3.5625 rlineto
-1.1563 0 rlineto
0 -7 rlineto
0.9375 0 rlineto
0.1563 1.0625 rlineto
0.0781 0 rlineto
0.1719 -0.2656 0.4141 -0.4688 rquadto
0.2422 -0.2031 0.5313 -0.3359 rquadto
0.2891 -0.1328 0.6172 -0.1953 rquadto
0.3281 -0.0625 0.6563 -0.0625 rquadto
1.2969 0 1.9531 0.6016 rquadto
0.6563 0.6016 0.6563 1.9141 rquadto
0 4.4844 rlineto
-1.1563 0 rlineto
closepath
} def
/P$y {
0 0.8438 -0.2109 1.5 rquadto
-0.2109 0.6563 -0.6016 1.1016 rquadto
-0.3906 0.4453 -0.9531 0.6797 rquadto
-0.5625 0.2344 -1.25 0.2344 rquadto
-0.6563 0 -1.1953 -0.2344 rquadto
-0.5391 -0.2344 -0.9375 -0.6797 rquadto
-0.3984 -0.4453 -0.625 -1.1016 rquadto
-0.2266 -0.6563 -0.2266 -1.5 rquadto
0 -0.8281 0.2109 -1.4766 rquadto
0.2109 -0.6484 0.6016 -1.0938 rquadto
0.3906 -0.4453 0.9531 -0.6797 rquadto
0.5625 -0.2344 1.25 -0.2344 rquadto
0.6563 0 1.1953 0.2344 rquadto
0.5391 0.2344 0.9375 0.6797 rquadto
0.3984 0.4453 0.625 1.0938 rquadto
0.2266 0.6484 0.2266 1.4766 rquadto
closepath
} def
/P$a {
0 0.9688 -0.2109 1.7188 rquadto
-0.2109 0.75 -0.6016 1.2578 rquadto
-0.3906 0.5078 -0.9531 0.7734 rquadto
-0.5625 0.2656 -1.25 0.2656 rquadto
-0.6563 0 -1.1953 -0.2656 rquadto
-0.5391 -0.2656 -0.9375 -0.7734 rquadto
-0.3984 -0.5078 -0.625 -1.2578 rquadto
-0.2266 -0.75 -0.2266 -1.7188 rquadto
0 -0.9531 0.2109 -1.6953 rquadto
0.2109 -0.7422 0.6016 -1.25 rquadto
0.3906 -0.5078 0.9531 -0.7734 rquadto
0.5625 -0.2656 1.25 -0.2656 rquadto
0.6563 0 1.1953 0.2656 rquadto
0.5391 0.2656 0.9375 0.7734 rquadto
0.3984 0.5078 0.625 1.25 rquadto
0.2266 0.7422 0.2266 1.6953 rquadto
closepath
} def
/P$t {
0 -4.4219 rlineto
0 -0.8125 -0.3828 -1.2188 rquadto
-0.3828 -0.4063 -1.2109 -0.4063 rquadto
-0.5938 0 -0.9922 0.1641 rquadto
-0.3984 0.1641 -0.6406 0.4844 rquadto
-0.2422 0.3203 -0.3516 0.7813 rquadto
-0.1094 0.4609 -0.1094 1.0547 rquadto
0 3.5625 rlineto
-1.1563 0 rlineto
0 -7 rlineto
0.9375 0 rlineto
0.1563 1.0625 rlineto
0.0781 0 rlineto
0.1719 -0.2656 0.4141 -0.4688 rquadto
0.2422 -0.2031 0.5313 -0.3359 rquadto
0.2891 -0.1328 0.6172 -0.1953 rquadto
0.3281 -0.0625 0.6563 -0.0625 rquadto
1.2969 0 1.9531 0.6016 rquadto
0.6563 0.6016 0.6563 1.9141 rquadto
0 4.4844 rlineto
-1.1563 0 rlineto
} def
/P$1e {
-0.9844 0 rlineto
-0.0625 -6 rlineto
1.3594 0 rlineto
-0.3125 6 rlineto
closepath
} def
/P$g {
-0.25 -1.1875 rlineto
-0.0469 0 rlineto
-0.1875 0.3125 -0.3828 0.5391 rquadto
-0.1953 0.2266 -0.4219 0.3672 rquadto
-0.2266 0.1406 -0.5078 0.2109 rquadto
-0.2813 0.0703 -0.6406 0.0703 rquadto
-0.4063 0 -0.7422 -0.1406 rquadto
-0.3359 -0.1406 -0.5859 -0.4375 rquadto
-0.25 -0.2969 -0.3906 -0.75 rquadto
-0.1406 -0.4531 -0.1406 -1.0625 rquadto
0 -1.2031 0.6719 -1.8516 rquadto
0.6719 -0.6484 2.0469 -0.7109 rquadto
1.0625 -0.0469 rlineto
0 -0.4531 rlineto
0 -0.4219 -0.0859 -0.7109 rquadto
-0.0859 -0.2891 -0.2578 -0.4688 rquadto
-0.1719 -0.1797 -0.4219 -0.2578 rquadto
-0.25 -0.0781 -0.5781 -0.0781 rquadto
-0.5 0 -0.9453 0.1641 rquadto
-0.4453 0.1641 -0.8516 0.3984 rquadto
-0.3906 -0.9375 rlineto
0.4688 -0.2656 1.0391 -0.4609 rquadto
0.5703 -0.1953 1.2109 -0.1953 rquadto
0.6406 0 1.1094 0.1484 rquadto
0.4688 0.1484 0.7813 0.4688 rquadto
0.3125 0.3203 0.4609 0.8125 rquadto
0.1484 0.4922 0.1484 1.1953 rquadto
0 5.375 rlineto
-0.8906 0 rlineto
closepath
} def
/P$1c {
-0.3594 0 -0.5938 -0.0469 rquadto
-0.2344 -0.0469 -0.4063 -0.1094 rquadto
0 -0.9219 rlineto
0.2188 0.0625 0.4375 0.0938 rquadto
0.2188 0.0313 0.5156 0.0313 rquadto
0.2188 0 0.4063 -0.0469 rquadto
0.1875 -0.0469 0.3359 -0.1719 rquadto
0.1484 -0.125 0.2266 -0.3281 rquadto
0.0781 -0.2031 0.0781 -0.5156 rquadto
0 -7.9844 rlineto
1.1563 0 rlineto
0 7.9063 rlineto
0 0.4844 -0.125 0.8672 rquadto
-0.125 0.3828 -0.3984 0.6563 rquadto
-0.2734 0.2734 -0.6719 0.4219 rquadto
-0.3984 0.1484 -0.9609 0.1484 rquadto
closepath
} def
/P$f {
-3.3125 -9 rlineto
-0.0625 0 rlineto
0.0469 0.5156 0.0625 1.0313 rquadto
0.0313 0.4531 0.0469 0.9375 rquadto
0.0156 0.4844 0.0156 0.8906 rquadto
0 6.1406 rlineto
-1.2656 0 rlineto
0 -10 rlineto
1.8594 0 rlineto
3.1094 8.4063 rlineto
0.0469 0 rlineto
3.2344 -8.4063 rlineto
1.75 0 rlineto
0 10 rlineto
-1.2656 0 rlineto
0 -6.2344 rlineto
0 -0.3594 0.0156 -0.8359 rquadto
0.0156 -0.4766 0.0313 -0.8984 rquadto
0.0313 -0.5 0.0469 -1.0156 rquadto
-0.0625 0 rlineto
-3.4531 8.9844 rlineto
-0.7969 0 rlineto
} def
/P$i {
1.0781 -1.2813 rlineto
2.3906 -2.7188 rlineto
1.4375 0 rlineto
-3.0938 3.4531 rlineto
3.2813 4.5469 rlineto
-1.4219 0 rlineto
-2.6563 -3.7969 rlineto
-0.9375 0.625 rlineto
0 3.1719 rlineto
-1.2344 0 rlineto
0 -11 rlineto
1.2344 0 rlineto
0 5.0469 rlineto
-0.1094 1.9531 rlineto
0.0313 0 rlineto
} def
/P$l {
0.0781 0.125 rlineto
-0.0938 0.3438 -0.2188 0.7031 rquadto
-0.125 0.3594 -0.2734 0.7344 rquadto
-0.1484 0.375 -0.3125 0.7422 rquadto
-0.1641 0.3672 -0.3203 0.6953 rquadto
-0.875 0 rlineto
0.1094 -0.3594 0.2188 -0.7578 rquadto
0.1094 -0.3984 0.2109 -0.7891 rquadto
0.1016 -0.3906 0.1797 -0.7656 rquadto
0.0781 -0.375 0.1406 -0.6875 rquadto
1.1719 0 rlineto
} def
/P$0 {
-0.7188 0 -1.3047 0.2734 rquadto
-0.5859 0.2734 -0.9922 0.7891 rquadto
-0.4063 0.5156 -0.6328 1.25 rquadto
-0.2266 0.7344 -0.2266 1.6563 rquadto
0 0.9531 0.2109 1.6953 rquadto
0.2109 0.7422 0.6328 1.2422 rquadto
0.4219 0.5 1.0547 0.7656 rquadto
0.6328 0.2656 1.4766 0.2656 rquadto
0.6406 0 1.2109 -0.1484 rquadto
0.5703 -0.1484 1.1328 -0.3359 rquadto
0 1.1094 rlineto
-0.2813 0.1094 -0.5547 0.1875 rquadto
-0.2734 0.0781 -0.5703 0.125 rquadto
-0.2969 0.0469 -0.6406 0.0703 rquadto
-0.3438 0.0234 -0.75 0.0234 rquadto
-1.1563 0 -2 -0.3594 rquadto
-0.8438 -0.3594 -1.3984 -1.0156 rquadto
-0.5547 -0.6563 -0.8203 -1.5859 rquadto
-0.2656 -0.9297 -0.2656 -2.0547 rquadto
0 -1.0938 0.2891 -2.0156 rquadto
0.2891 -0.9219 0.8516 -1.5781 rquadto
0.5625 -0.6563 1.3984 -1.0234 rquadto
0.8359 -0.3672 1.9141 -0.3672 rquadto
0.7188 0 1.3672 0.1484 rquadto
0.6484 0.1484 1.1797 0.4453 rquadto
-0.5156 1.0625 rlineto
-0.4219 -0.25 -0.9219 -0.4375 rquadto
-0.5 -0.1875 -1.125 -0.1875 rquadto
} def
/P$1d {
1.2031 0 rlineto
1.4219 3.9063 rlineto
0.0781 0.25 0.1797 0.5313 rquadto
0.1016 0.2813 0.1797 0.5625 rquadto
0.0781 0.2813 0.1406 0.5469 rquadto
0.0625 0.2656 0.0781 0.4844 rquadto
0.0469 0 rlineto
0.0313 -0.1563 0.1094 -0.4297 rquadto
0.0781 -0.2734 0.1719 -0.5859 rquadto
0.0938 -0.3125 0.1953 -0.6094 rquadto
0.1016 -0.2969 0.1797 -0.5156 rquadto
1.4063 -3.8906 rlineto
1.1875 0 rlineto
-2.9531 7.9063 rlineto
-0.1875 0.4844 -0.3984 0.875 rquadto
-0.2109 0.3906 -0.4844 0.6563 rquadto
-0.2734 0.2656 -0.6484 0.4141 rquadto
-0.375 0.1484 -0.9063 0.1484 rquadto
-0.3281 0 -0.5781 -0.0313 rquadto
-0.25 -0.0313 -0.4219 -0.0781 rquadto
0 -0.9219 rlineto
0.1406 0.0313 0.3516 0.0547 rquadto
0.2109 0.0234 0.4297 0.0234 rquadto
0.3125 0 0.5469 -0.0703 rquadto
0.2344 -0.0703 0.3984 -0.2031 rquadto
0.1641 -0.1328 0.2891 -0.3203 rquadto
0.125 -0.1875 0.2188 -0.4375 rquadto
0.375 -0.9531 rlineto
-2.7188 -7.0625 rlineto
} def
/P$b {
0 1.4844 0.4063 2.2344 rquadto
0.4063 0.75 1.3281 0.75 rquadto
0.9219 0 1.3281 -0.75 rquadto
0.4063 -0.75 0.4063 -2.2344 rquadto
0 -1.4844 -0.4063 -2.2188 rquadto
-0.4063 -0.7344 -1.3281 -0.7344 rquadto
-0.9219 0 -1.3281 0.7344 rquadto
-0.4063 0.7344 -0.4063 2.2188 rquadto
} def
/P$w {
-0.5156 0 -0.8672 0.1406 rquadto
-0.3516 0.1406 -0.5703 0.4297 rquadto
-0.2188 0.2891 -0.3281 0.7109 rquadto
-0.1094 0.4219 -0.1094 1 rquadto
0 0.25 rlineto
0 0.625 0.0938 1.1016 rquadto
0.0938 0.4766 0.3125 0.8047 rquadto
0.2188 0.3281 0.5781 0.4922 rquadto
0.3594 0.1641 0.9063 0.1641 rquadto
0.9063 0 1.3359 -0.6641 rquadto
0.4297 -0.6641 0.4297 -1.9141 rquadto
0 -1.2656 -0.4297 -1.8906 rquadto
-0.4297 -0.625 -1.3516 -0.625 rquadto
} def
/P$z {
0 1.2813 0.4297 1.9219 rquadto
0.4297 0.6406 1.3828 0.6406 rquadto
0.9688 0 1.3906 -0.6406 rquadto
0.4219 -0.6406 0.4219 -1.9219 rquadto
0 -1.2656 -0.4297 -1.8984 rquadto
-0.4297 -0.6328 -1.3828 -0.6328 rquadto
-0.9688 0 -1.3906 0.6328 rquadto
-0.4219 0.6328 -0.4219 1.8984 rquadto
closepath
} def
/P$16 {
0.5156 0 0.8672 -0.1406 rquadto
0.3516 -0.1406 0.5703 -0.4297 rquadto
0.2188 -0.2891 0.3203 -0.7188 rquadto
0.1016 -0.4297 0.1172 -0.9922 rquadto
0 -0.25 rlineto
0 -0.625 -0.0938 -1.1016 rquadto
-0.0938 -0.4766 -0.3125 -0.8047 rquadto
-0.2188 -0.3281 -0.5781 -0.4922 rquadto
-0.3594 -0.1641 -0.9063 -0.1641 rquadto
-0.9063 0 -1.3359 0.6641 rquadto
-0.4297 0.6641 -0.4297 1.9141 rquadto
0 1.2656 0.4297 1.8906 rquadto
0.4297 0.625 1.3516 0.625 rquadto
} def
/P$14 {
0.125 0 0.2656 -0.0156 rquadto
0.1406 -0.0156 0.2813 -0.0313 rquadto
0.1406 -0.0156 0.25 -0.0469 rquadto
0.1094 -0.0313 0.1719 -0.0469 rquadto
0 0.8906 rlineto
-0.0781 0.0313 -0.2109 0.0703 rquadto
-0.1328 0.0391 -0.2891 0.0703 rquadto
-0.1563 0.0313 -0.3203 0.0469 rquadto
-0.1641 0.0156 -0.3203 0.0156 rquadto
-0.4063 0 -0.7422 -0.1016 rquadto
-0.3359 -0.1016 -0.5859 -0.3438 rquadto
-0.25 -0.2422 -0.3906 -0.6641 rquadto
-0.1406 -0.4219 -0.1406 -1.0625 rquadto
0 -4 rlineto
-1 0 rlineto
0 -0.5 rlineto
1 -0.4688 rlineto
0.5 -1.4531 rlineto
0.6563 0 rlineto
0 1.5938 rlineto
1.7969 0 rlineto
0 0.8281 rlineto
-1.7969 0 rlineto
0 4 rlineto
0 0.6094 0.2031 0.9141 rquadto
0.2031 0.3047 0.6719 0.3047 rquadto
closepath
} def
/P$7 {
0.1719 0 0.3906 -0.0156 rquadto
0.2188 -0.0156 0.4297 -0.0391 rquadto
0.2109 -0.0234 0.375 -0.0469 rquadto
0.1641 -0.0234 0.2578 -0.0547 rquadto
0 0.9688 rlineto
-0.1094 0.0313 -0.2813 0.0781 rquadto
-0.1719 0.0469 -0.375 0.0781 rquadto
-0.2031 0.0313 -0.4297 0.0469 rquadto
-0.2266 0.0156 -0.4453 0.0156 rquadto
-0.5313 0 -0.9844 -0.1172 rquadto
-0.4531 -0.1172 -0.7813 -0.3984 rquadto
-0.3281 -0.2813 -0.5156 -0.7656 rquadto
-0.1875 -0.4844 -0.1875 -1.2188 rquadto
0 -4.6094 rlineto
-1 0 rlineto
0 -0.5313 rlineto
1 -0.5156 rlineto
0.5313 -1.5781 rlineto
0.7031 0 rlineto
0 1.7344 rlineto
2.7031 0 rlineto
0 0.8906 rlineto
-2.7031 0 rlineto
0 4.6563 rlineto
0 0.7031 0.3047 1.0625 rquadto
0.3047 0.3594 1.0078 0.3594 rquadto
} def
/P$1g {
-5.375 0 rlineto
0 -0.9844 rlineto
2.0313 -2.2969 rlineto
0.4219 -0.5 0.7656 -0.8984 rquadto
0.3438 -0.3984 0.5859 -0.7891 rquadto
0.2422 -0.3906 0.3672 -0.7813 rquadto
0.125 -0.3906 0.125 -0.8438 rquadto
0 -0.3438 -0.1016 -0.6094 rquadto
-0.1016 -0.2656 -0.2891 -0.4453 rquadto
-0.1875 -0.1797 -0.4375 -0.2734 rquadto
-0.25 -0.0938 -0.5625 -0.0938 rquadto
-0.5625 0 -1.0156 0.2422 rquadto
-0.4531 0.2422 -0.8594 0.6172 rquadto
-0.6094 -0.75 rlineto
0.2344 -0.2344 0.5078 -0.4297 rquadto
0.2734 -0.1953 0.5938 -0.3438 rquadto
0.3203 -0.1484 0.6719 -0.2344 rquadto
0.3516 -0.0859 0.7422 -0.0859 rquadto
0.5625 0 1.0234 0.1641 rquadto
0.4609 0.1641 0.7813 0.4688 rquadto
0.3203 0.3047 0.5 0.7422 rquadto
0.1797 0.4375 0.1797 0.9844 rquadto
0 0.5156 -0.1484 0.9766 rquadto
-0.1484 0.4609 -0.4141 0.9141 rquadto
-0.2656 0.4531 -0.6328 0.9063 rquadto
-0.3672 0.4531 -0.7891 0.9375 rquadto
-1.5938 1.8125 rlineto
-0.4219 0.0469 rlineto
4.375 0 rlineto
0 1.0469 rlineto
closepath
} def
/P$q {
-2.6094 -7 rlineto
1.1875 0 rlineto
1.3438 3.9844 rlineto
0.0781 0.2031 0.1797 0.5469 rquadto
0.1016 0.3438 0.1953 0.6953 rquadto
0.0938 0.3516 0.1797 0.6641 rquadto
0.0859 0.3125 0.1172 0.4688 rquadto
0.0469 0 rlineto
0.0313 -0.1563 0.1172 -0.4688 rquadto
0.0859 -0.3125 0.1875 -0.6641 rquadto
0.1016 -0.3516 0.2031 -0.6953 rquadto
0.1016 -0.3438 0.1797 -0.5469 rquadto
1.375 -3.9844 rlineto
1.1875 0 rlineto
-2.6719 7 rlineto
-1.2188 0 rlineto
} def
/P$h {
0.3281 0 0.6172 -0.1328 rquadto
0.2891 -0.1328 0.4922 -0.4141 rquadto
0.2031 -0.2813 0.3203 -0.6953 rquadto
0.1172 -0.4141 0.1172 -0.9922 rquadto
0 -0.7031 rlineto
-0.7813 0.0469 rlineto
-0.4844 0.0313 -0.8125 0.1484 rquadto
-0.3281 0.1172 -0.5313 0.3203 rquadto
-0.2031 0.2031 -0.2891 0.4922 rquadto
-0.0859 0.2891 -0.0859 0.6484 rquadto
0 0.6719 0.2656 0.9766 rquadto
0.2656 0.3047 0.6875 0.3047 rquadto
} def
/P$k {
-3.375 0 rlineto
0 -0.6406 rlineto
1.0938 -0.2656 rlineto
0 -7.1875 rlineto
-1.0938 -0.2656 rlineto
0 -0.6406 rlineto
3.375 0 rlineto
0 0.6406 rlineto
-1.0938 0.2656 rlineto
0 7.1875 rlineto
1.0938 0.2656 rlineto
0 0.6406 rlineto
} def
/P$5 {
-0.7969 0 -1.2656 0.5 rquadto
-0.4688 0.5 -0.5469 1.4688 rquadto
3.4531 0 rlineto
0 -0.4375 -0.0938 -0.8047 rquadto
-0.0938 -0.3672 -0.2969 -0.625 rquadto
-0.2031 -0.2578 -0.5078 -0.3984 rquadto
-0.3047 -0.1406 -0.7422 -0.1406 rquadto
} def
/P$s {
-0.5938 0 -0.9453 0.5234 rquadto
-0.3516 0.5234 -0.4141 1.5234 rquadto
2.5938 0 rlineto
0 -0.4531 -0.0703 -0.8359 rquadto
-0.0703 -0.3828 -0.2188 -0.6484 rquadto
-0.1484 -0.2656 -0.3828 -0.4141 rquadto
-0.2344 -0.1484 -0.5625 -0.1484 rquadto
} def
/P$10 {
-1.125 0 rlineto
0 -5.2656 rlineto
0 -0.25 0.0078 -0.5313 rquadto
0.0078 -0.2813 0.0156 -0.5938 rquadto
0.0078 -0.3125 0.0156 -0.5938 rquadto
0.0078 -0.2813 0.0234 -0.5 rquadto
-0.1094 0.125 -0.1797 0.2031 rquadto
-0.0703 0.0781 -0.1406 0.1563 rquadto
-0.0703 0.0781 -0.1484 0.1641 rquadto
-0.0781 0.0859 -0.1875 0.1953 rquadto
-0.7813 0.7656 rlineto
-0.5 -0.875 rlineto
2.0469 -2.125 rlineto
0.9531 0 rlineto
0 9 rlineto
} def
/P$18 {
-1.8438 0 rlineto
0 6.1719 rlineto
-1.1563 0 rlineto
0 -6.1719 rlineto
-1 0 rlineto
0 -0.4531 rlineto
1 -0.4219 rlineto
0 -0.6094 rlineto
0 -0.6875 0.1719 -1.1328 rquadto
0.1719 -0.4453 0.4922 -0.7188 rquadto
0.3203 -0.2734 0.7891 -0.3828 rquadto
0.4688 -0.1094 1.0625 -0.1094 rquadto
0.4375 0 0.8125 0.0703 rquadto
0.375 0.0703 0.6719 0.1641 rquadto
-0.3906 0.9063 rlineto
-0.25 -0.0781 -0.5469 -0.1328 rquadto
-0.2969 -0.0547 -0.625 -0.0547 rquadto
-0.3438 0 -0.5781 0.0625 rquadto
-0.2344 0.0625 -0.3906 0.2188 rquadto
-0.1563 0.1563 -0.2344 0.4219 rquadto
-0.0781 0.2656 -0.0781 0.6719 rquadto
0 0.6719 rlineto
1.8438 0 rlineto
0 0.8281 rlineto
closepath
} def
/P$2 {
-1.2344 0 rlineto
0 -8 rlineto
1.2344 0 rlineto
0 8 rlineto
closepath
} def
/P$p {
0.3594 0 0.6563 -0.0938 rquadto
0.2969 -0.0938 0.5156 -0.2969 rquadto
0.2188 -0.2031 0.3438 -0.5 rquadto
0.125 -0.2969 0.125 -0.7031 rquadto
0 -0.5 rlineto
-0.8281 0.0313 rlineto
-0.5156 0.0313 -0.8672 0.1094 rquadto
-0.3516 0.0781 -0.5625 0.2266 rquadto
-0.2109 0.1484 -0.3047 0.3516 rquadto
-0.0938 0.2031 -0.0938 0.4688 rquadto
0 0.4688 0.2813 0.6875 rquadto
0.2813 0.2188 0.7344 0.2188 rquadto
} def
/P$11 {
-1.1563 0 rlineto
0 -7 rlineto
1.1563 0 rlineto
0 7 rlineto
closepath
} def
/P$j {
0.2031 0 0.4375 0.0156 rquadto
0.2344 0.0156 0.4063 0.0469 rquadto
-0.1563 1.1719 rlineto
-0.1875 -0.0313 -0.3828 -0.0625 rquadto
-0.1953 -0.0313 -0.3672 -0.0313 rquadto
-0.4063 0 -0.75 0.1875 rquadto
-0.3438 0.1875 -0.5938 0.5234 rquadto
-0.25 0.3359 -0.3828 0.8203 rquadto
-0.1328 0.4844 -0.1328 1.0625 rquadto
0 4.2656 rlineto
-1.2344 0 rlineto
0 -8 rlineto
1 0 rlineto
0.1563 1.5156 rlineto
0.0469 0 rlineto
0.1719 -0.2969 0.3594 -0.5703 rquadto
0.1875 -0.2734 0.4219 -0.4844 rquadto
0.2344 -0.2109 0.5234 -0.3359 rquadto
0.2891 -0.125 0.6484 -0.125 rquadto
} def
/P$9 {
-1.1875 0 rlineto
0 -6.1406 rlineto
0 -0.2969 0.0078 -0.625 rquadto
0.0078 -0.3281 0.0156 -0.6641 rquadto
0.0078 -0.3359 0.0156 -0.6406 rquadto
0.0078 -0.3047 0.0234 -0.5234 rquadto
-0.1094 0.1094 -0.1875 0.2031 rquadto
-0.0781 0.0938 -0.1484 0.1719 rquadto
-0.0703 0.0781 -0.1563 0.1719 rquadto
-0.0859 0.0938 -0.2109 0.2188 rquadto
-0.8281 0.8281 rlineto
-0.5313 -0.875 rlineto
2.1719 -2.125 rlineto
1.0156 0 rlineto
0 10 rlineto
closepath
} def
/P$v {
-0.3906 0 -0.7109 -0.0781 rquadto
-0.3203 -0.0781 -0.5703 -0.2188 rquadto
-0.25 -0.1406 -0.4453 -0.3203 rquadto
-0.1953 -0.1797 -0.3516 -0.3828 rquadto
-0.0781 0 rlineto
0.0156 0.2188 0.0469 0.4063 rquadto
0 0.1719 0.0156 0.3438 rquadto
0.0156 0.1719 0.0156 0.2813 rquadto
0 2.9688 rlineto
-1.1563 0 rlineto
0 -10 rlineto
0.9375 0 rlineto
0.1563 1.0625 rlineto
0.0469 0 rlineto
0.1563 -0.2188 0.3516 -0.4141 rquadto
0.1953 -0.1953 0.4531 -0.3359 rquadto
0.2578 -0.1406 0.5703 -0.2266 rquadto
0.3125 -0.0859 0.7188 -0.0859 rquadto
0.625 0 1.1328 0.2188 rquadto
0.5078 0.2188 0.875 0.6641 rquadto
0.3672 0.4453 0.5625 1.0938 rquadto
0.1953 0.6484 0.1953 1.5078 rquadto
0 0.875 -0.1953 1.5313 rquadto
-0.1953 0.6563 -0.5625 1.0938 rquadto
-0.3672 0.4375 -0.875 0.6641 rquadto
-0.5078 0.2266 -1.1328 0.2266 rquadto
closepath
} def
/P$1 {
-1.2344 0 rlineto
0 -11 rlineto
1.2344 0 rlineto
0 11 rlineto
} def
/P$m {
-1.1563 0 rlineto
0 -10 rlineto
1.1563 0 rlineto
0 10 rlineto
} def
/P$19 {
-0.5313 0 -0.9844 -0.1953 rquadto
-0.4531 -0.1953 -0.7891 -0.6172 rquadto
-0.3359 -0.4219 -0.5313 -1.0781 rquadto
-0.1953 -0.6563 -0.1953 -1.5781 rquadto
0 -0.9531 0.1953 -1.6328 rquadto
0.1953 -0.6797 0.5469 -1.1016 rquadto
0.3516 -0.4219 0.8125 -0.6094 rquadto
0.4609 -0.1875 0.9922 -0.1875 rquadto
0.4063 0 0.7969 0.1094 rquadto
0.3906 0.1094 0.6563 0.2656 rquadto
-0.2656 0.9688 rlineto
-0.1094 -0.0625 -0.2422 -0.1172 rquadto
-0.1328 -0.0547 -0.2813 -0.1094 rquadto
-0.1484 -0.0547 -0.2891 -0.0781 rquadto
-0.1406 -0.0234 -0.2656 -0.0234 rquadto
-0.7656 0 -1.1172 0.6094 rquadto
-0.3516 0.6094 -0.3516 1.8906 rquadto
0 1.2813 0.3516 1.875 rquadto
0.3516 0.5938 1.0547 0.5938 rquadto
0.3906 0 0.7031 -0.125 rquadto
0.3125 -0.125 0.5781 -0.2813 rquadto
0 1.0469 rlineto
-0.2813 0.1875 -0.6016 0.2813 rquadto
-0.3203 0.0938 -0.7734 0.0938 rquadto
} def
/P$6 {
0 -5.0938 rlineto
0 -0.9375 -0.3672 -1.4063 rquadto
-0.3672 -0.4688 -1.1484 -0.4688 rquadto
-0.5781 0 -0.9609 0.1875 rquadto
-0.3828 0.1875 -0.6172 0.5547 rquadto
-0.2344 0.3672 -0.3359 0.8984 rquadto
-0.1016 0.5313 -0.1016 1.2344 rquadto
0 4.0938 rlineto
-1.2344 0 rlineto
0 -8 rlineto
1 0 rlineto
0.1719 1.1406 rlineto
0.0625 0 rlineto
0.1875 -0.2969 0.4219 -0.5078 rquadto
0.2344 -0.2109 0.5234 -0.3516 rquadto
0.2891 -0.1406 0.6094 -0.2109 rquadto
0.3203 -0.0703 0.6484 -0.0703 rquadto
1.2813 0 1.9219 0.6797 rquadto
0.6406 0.6797 0.6406 2.1953 rquadto
0 5.125 rlineto
-1.2344 0 rlineto
} def
/P$e {
0.2031 0 0.4375 0.0156 rquadto
0.2344 0.0156 0.4063 0.0469 rquadto
-0.1563 1.1719 rlineto
-0.1875 -0.0313 -0.3828 -0.0625 rquadto
-0.1953 -0.0313 -0.3672 -0.0313 rquadto
-0.4063 0 -0.75 0.1875 rquadto
-0.3438 0.1875 -0.5938 0.5234 rquadto
-0.25 0.3359 -0.3828 0.8203 rquadto
-0.1328 0.4844 -0.1328 1.0625 rquadto
0 4.2656 rlineto
-1.2344 0 rlineto
0 -8 rlineto
1 0 rlineto
0.1563 1.5156 rlineto
0.0469 0 rlineto
0.1719 -0.2969 0.3594 -0.5703 rquadto
0.1875 -0.2734 0.4219 -0.4844 rquadto
0.2344 -0.2109 0.5234 -0.3359 rquadto
0.2891 -0.125 0.6484 -0.125 rquadto
closepath
} def
/P$3 {
0 -0.5313 0.2031 -0.7656 rquadto
0.2031 -0.2344 0.5156 -0.2344 rquadto
0.1406 0 0.2734 0.0547 rquadto
0.1328 0.0547 0.2344 0.1797 rquadto
0.1016 0.125 0.1563 0.3125 rquadto
0.0547 0.1875 0.0547 0.4531 rquadto
0 0.5 -0.2109 0.75 rquadto
-0.2109 0.25 -0.5078 0.25 rquadto
-0.3125 0 -0.5156 -0.2422 rquadto
-0.2031 -0.2422 -0.2031 -0.7578 rquadto
} def
/P$4 {
-0.75 0 -1.3672 -0.2578 rquadto
-0.6172 -0.2578 -1.0703 -0.7578 rquadto
-0.4531 -0.5 -0.6953 -1.2422 rquadto
-0.2422 -0.7422 -0.2422 -1.6797 rquadto
0 -0.9688 0.2266 -1.7188 rquadto
0.2266 -0.75 0.6328 -1.2734 rquadto
0.4063 -0.5234 0.9766 -0.7969 rquadto
0.5703 -0.2734 1.2578 -0.2734 rquadto
0.6719 0 1.2109 0.2344 rquadto
0.5391 0.2344 0.9141 0.6641 rquadto
0.375 0.4297 0.5781 1.0391 rquadto
0.2031 0.6094 0.2031 1.3438 rquadto
0 0.75 rlineto
-4.7344 0 rlineto
0.0313 1.4844 0.5547 2.1797 rquadto
0.5234 0.6953 1.5703 0.6953 rquadto
0.3438 0 0.6406 -0.0313 rquadto
0.2969 -0.0313 0.5781 -0.1016 rquadto
0.2813 -0.0703 0.5391 -0.1641 rquadto
0.2578 -0.0938 0.5234 -0.2188 rquadto
0 1.1094 rlineto
-0.2656 0.125 -0.5313 0.2266 rquadto
-0.2656 0.1016 -0.5391 0.1563 rquadto
-0.2734 0.0547 -0.5703 0.0859 rquadto
-0.2969 0.0313 -0.6563 0.0313 rquadto
closepath
} def
/P$n {
0 -4.4219 rlineto
0 -0.8125 -0.3828 -1.2188 rquadto
-0.3828 -0.4063 -1.2109 -0.4063 rquadto
-0.5938 0 -0.9922 0.1641 rquadto
-0.3984 0.1641 -0.6406 0.4844 rquadto
-0.2422 0.3203 -0.3516 0.7813 rquadto
-0.1094 0.4609 -0.1094 1.0547 rquadto
0 3.5625 rlineto
-1.1563 0 rlineto
0 -10 rlineto
1.1563 0 rlineto
0 3.0938 rlineto
-0.0625 0.9688 rlineto
0.0781 0 rlineto
0.1719 -0.2656 0.4141 -0.4688 rquadto
0.2422 -0.2031 0.5313 -0.3359 rquadto
0.2891 -0.1328 0.6172 -0.1953 rquadto
0.3281 -0.0625 0.6563 -0.0625 rquadto
1.2969 0 1.9531 0.6016 rquadto
0.6563 0.6016 0.6563 1.9141 rquadto
0 4.4844 rlineto
-1.1563 0 rlineto
} def
/P$c {
-1.7656 0 rlineto
0 7.1094 rlineto
-1.2344 0 rlineto
0 -7.1094 rlineto
-1 0 rlineto
0 -0.4844 rlineto
1 -0.4531 rlineto
0 -0.6094 rlineto
0 -0.6875 0.1719 -1.1328 rquadto
0.1719 -0.4453 0.4922 -0.7188 rquadto
0.3203 -0.2734 0.7891 -0.3828 rquadto
0.4688 -0.1094 1.0625 -0.1094 rquadto
0.4375 0 0.8125 0.0781 rquadto
0.375 0.0781 0.6719 0.1719 rquadto
-0.375 0.9688 rlineto
-0.25 -0.0781 -0.5391 -0.1328 rquadto
-0.2891 -0.0547 -0.6172 -0.0547 rquadto
-0.3125 0 -0.5469 0.0625 rquadto
-0.2344 0.0625 -0.3828 0.2031 rquadto
-0.1484 0.1406 -0.2266 0.3984 rquadto
-0.0781 0.2578 -0.0781 0.6641 rquadto
0 0.6406 rlineto
1.7656 0 rlineto
0 0.8906 rlineto
closepath
} def
/P$u {
0 0.4844 -0.1641 0.8516 rquadto
-0.1641 0.3672 -0.4609 0.6172 rquadto
-0.2969 0.25 -0.7188 0.375 rquadto
-0.4219 0.125 -0.9531 0.125 rquadto
-0.6094 0 -1.0391 -0.1094 rquadto
-0.4297 -0.1094 -0.7578 -0.3281 rquadto
0 -1.0625 rlineto
0.1563 0.1094 0.3594 0.2031 rquadto
0.2031 0.0938 0.4219 0.1719 rquadto
0.2188 0.0781 0.4453 0.125 rquadto
0.2266 0.0469 0.4609 0.0469 rquadto
0.3438 0 0.5781 -0.0625 rquadto
0.2344 -0.0625 0.3828 -0.1875 rquadto
0.1484 -0.125 0.2188 -0.2969 rquadto
0.0703 -0.1719 0.0703 -0.3906 rquadto
0 -0.1875 -0.0547 -0.3438 rquadto
-0.0547 -0.1563 -0.1875 -0.3047 rquadto
-0.1328 -0.1484 -0.375 -0.3047 rquadto
-0.2422 -0.1563 -0.6172 -0.3438 rquadto
-0.375 -0.1875 -0.6719 -0.375 rquadto
-0.2969 -0.1875 -0.5078 -0.4141 rquadto
-0.2109 -0.2266 -0.3203 -0.5234 rquadto
-0.1094 -0.2969 -0.1094 -0.7031 rquadto
0 -0.4375 0.1484 -0.7734 rquadto
0.1484 -0.3359 0.4297 -0.5625 rquadto
0.2813 -0.2266 0.6641 -0.3438 rquadto
0.3828 -0.1172 0.8516 -0.1172 rquadto
0.5313 0 0.9766 0.1328 rquadto
0.4453 0.1328 0.8359 0.3516 rquadto
-0.3281 0.9219 rlineto
-0.3281 -0.1875 -0.6797 -0.3203 rquadto
-0.3516 -0.1328 -0.7109 -0.1328 rquadto
-0.5313 0 -0.7813 0.1953 rquadto
-0.25 0.1953 -0.25 0.5703 rquadto
0 0.2188 0.0625 0.375 rquadto
0.0625 0.1563 0.2031 0.2969 rquadto
0.1406 0.1406 0.3828 0.2891 rquadto
0.2422 0.1484 0.6016 0.3203 rquadto
0.375 0.1875 0.6719 0.375 rquadto
0.2969 0.1875 0.5 0.4141 rquadto
0.2031 0.2266 0.3125 0.5234 rquadto
0.1094 0.2969 0.1094 0.7188 rquadto
} def
/P$x {
0.2031 0 0.4453 0.0156 rquadto
0.2422 0.0156 0.4141 0.0469 rquadto
-0.1563 1.0625 rlineto
-0.2031 -0.0313 -0.3984 -0.0547 rquadto
-0.1953 -0.0234 -0.3672 -0.0234 rquadto
-0.4375 0 -0.7891 0.1563 rquadto
-0.3516 0.1563 -0.6016 0.4531 rquadto
-0.25 0.2969 -0.3906 0.7188 rquadto
-0.1406 0.4219 -0.1406 0.9219 rquadto
0 3.7031 rlineto
-1.1563 0 rlineto
0 -7 rlineto
0.9375 0 rlineto
0.1406 1.4063 rlineto
0.0469 0 rlineto
0.1719 -0.2813 0.3672 -0.5313 rquadto
0.1953 -0.25 0.4375 -0.4453 rquadto
0.2422 -0.1953 0.5391 -0.3125 rquadto
0.2969 -0.1172 0.6719 -0.1172 rquadto
} def
/P$o {
-0.2344 -1.0938 rlineto
-0.0469 0 rlineto
-0.2031 0.2813 -0.3984 0.4922 rquadto
-0.1953 0.2109 -0.4219 0.3438 rquadto
-0.2266 0.1328 -0.5156 0.1953 rquadto
-0.2891 0.0625 -0.6484 0.0625 rquadto
-0.4219 0 -0.7656 -0.1172 rquadto
-0.3438 -0.1172 -0.5938 -0.3516 rquadto
-0.25 -0.2344 -0.3906 -0.5938 rquadto
-0.1406 -0.3594 -0.1406 -0.8594 rquadto
0 -0.9531 0.6875 -1.4688 rquadto
0.6875 -0.5156 2.0781 -0.5625 rquadto
1.0938 -0.0469 rlineto
0 -0.4688 rlineto
0 -0.4375 -0.0938 -0.7422 rquadto
-0.0938 -0.3047 -0.2656 -0.4922 rquadto
-0.1719 -0.1875 -0.4297 -0.2656 rquadto
-0.2578 -0.0781 -0.5703 -0.0781 rquadto
-0.5313 0 -0.9844 0.1484 rquadto
-0.4531 0.1484 -0.8594 0.3672 rquadto
-0.4063 -0.8594 rlineto
0.4688 -0.25 1.0391 -0.4297 rquadto
0.5703 -0.1797 1.2109 -0.1797 rquadto
0.6406 0 1.1094 0.125 rquadto
0.4688 0.125 0.7813 0.4063 rquadto
0.3125 0.2813 0.4609 0.7109 rquadto
0.1484 0.4297 0.1484 1.0547 rquadto
0 4.7031 rlineto
-0.8438 0 rlineto
closepath
} def
/P$12 {
0 -0.2656 0.1953 -0.3828 rquadto
0.1953 -0.1172 0.4766 -0.1172 rquadto
0.1406 0 0.2656 0.0313 rquadto
0.125 0.0313 0.2188 0.0859 rquadto
0.0938 0.0547 0.1484 0.1484 rquadto
0.0547 0.0938 0.0547 0.2344 rquadto
0 0.25 -0.2031 0.375 rquadto
-0.2031 0.125 -0.4844 0.125 rquadto
-0.2813 0 -0.4766 -0.125 rquadto
-0.1953 -0.125 -0.1953 -0.375 rquadto
} def
/P$8 {
-6.3906 0 rlineto
0 -1.0625 rlineto
2.4844 -2.5625 rlineto
0.5313 -0.5469 0.9453 -1 rquadto
0.4141 -0.4531 0.7109 -0.8906 rquadto
0.2969 -0.4375 0.4531 -0.8672 rquadto
0.1563 -0.4297 0.1563 -0.9453 rquadto
0 -0.3906 -0.125 -0.6875 rquadto
-0.125 -0.2969 -0.3516 -0.5 rquadto
-0.2266 -0.2031 -0.5391 -0.3125 rquadto
-0.3125 -0.1094 -0.7031 -0.1094 rquadto
-0.6875 0 -1.2422 0.2578 rquadto
-0.5547 0.2578 -1.0547 0.6641 rquadto
-0.7344 -0.8125 rlineto
0.2813 -0.25 0.6094 -0.4609 rquadto
0.3281 -0.2109 0.7109 -0.3672 rquadto
0.3828 -0.1563 0.8047 -0.25 rquadto
0.4219 -0.0938 0.8906 -0.0938 rquadto
0.6875 0 1.2422 0.1797 rquadto
0.5547 0.1797 0.9375 0.5234 rquadto
0.3828 0.3438 0.5938 0.8281 rquadto
0.2109 0.4844 0.2109 1.0938 rquadto
0 0.5781 -0.1875 1.0938 rquadto
-0.1875 0.5156 -0.5156 1.0156 rquadto
-0.3281 0.5 -0.7891 1.0078 rquadto
-0.4609 0.5078 -0.9922 1.0547 rquadto
-1.9844 2.0156 rlineto
-0.5313 0.0469 rlineto
5.3906 0 rlineto
0 1.1406 rlineto
closepath
} def
0.7843 0.7843 0.7843 setrgbcolor
10 29.1328 232.5 118.2969 1 roundrect
closepath eofill
0.4902 0.4902 0.4902 setrgbcolor
9 28.1328 233 118.7969 1 roundrect
closepath eofill
0.1961 0.1961 0.1961 setrgbcolor
8 27.1328 233.5 119.2969 1 roundrect
closepath eofill
1 1 1 setrgbcolor
10 29.1328 231.5 117.2969 simplerect
closepath eofill
1.0 setlinewidth
0.6588 0 0.2118 setrgbcolor
10 29.1328 231.5 117.2969 simplerect
closepath stroke
0.7843 0.7843 0.7843 setrgbcolor
10 29.1328 232.5 176.5625 1 roundrect
closepath eofill
0.4902 0.4902 0.4902 setrgbcolor
9 28.1328 233 177.0625 1 roundrect
closepath eofill
0.1961 0.1961 0.1961 setrgbcolor
8 27.1328 233.5 177.5625 1 roundrect
closepath eofill
1 1 1 setrgbcolor
10 29.1328 231.5 175.5625 simplerect
closepath eofill
1.0 setlinewidth
0.6588 0 0.2118 setrgbcolor
10 29.1328 231.5 175.5625 simplerect
closepath stroke
0.7843 0.7843 0.7843 setrgbcolor
10 29.1328 232.5 244.8281 1 roundrect
closepath eofill
0.4902 0.4902 0.4902 setrgbcolor
9 28.1328 233 245.3281 1 roundrect
closepath eofill
0.1961 0.1961 0.1961 setrgbcolor
8 27.1328 233.5 245.8281 1 roundrect
closepath eofill
1 1 1 setrgbcolor
10 29.1328 231.5 243.8281 simplerect
closepath eofill
1.0 setlinewidth
0.6588 0 0.2118 setrgbcolor
10 29.1328 231.5 243.8281 simplerect
closepath stroke
0.7843 0.7843 0.7843 setrgbcolor
10 29.1328 232.5 303.0938 1 roundrect
closepath eofill
0.4902 0.4902 0.4902 setrgbcolor
9 28.1328 233 303.5938 1 roundrect
closepath eofill
0.1961 0.1961 0.1961 setrgbcolor
8 27.1328 233.5 304.0938 1 roundrect
closepath eofill
1 1 1 setrgbcolor
10 29.1328 231.5 302.0938 simplerect
closepath eofill
1.0 setlinewidth
0.6588 0 0.2118 setrgbcolor
10 29.1328 231.5 302.0938 simplerect
closepath stroke
0.7843 0.7843 0.7843 setrgbcolor
10 97.3984 353.5 147.4297 1 roundrect
closepath eofill
0.4902 0.4902 0.4902 setrgbcolor
9 96.3984 354 147.9297 1 roundrect
closepath eofill
0.1961 0.1961 0.1961 setrgbcolor
8 95.3984 354.5 148.4297 1 roundrect
closepath eofill
1 1 1 setrgbcolor
10 97.3984 352.5 146.4297 simplerect
closepath eofill
1.0 setlinewidth
0.6588 0 0.2118 setrgbcolor
10 97.3984 352.5 146.4297 simplerect
closepath stroke
0.7843 0.7843 0.7843 setrgbcolor
10 97.3984 456.5 205.6953 1 roundrect
closepath eofill
0.4902 0.4902 0.4902 setrgbcolor
9 96.3984 457 206.1953 1 roundrect
closepath eofill
0.1961 0.1961 0.1961 setrgbcolor
8 95.3984 457.5 206.6953 1 roundrect
closepath eofill
1 1 1 setrgbcolor
10 97.3984 455.5 204.6953 simplerect
closepath eofill
1.0 setlinewidth
0.6588 0 0.2118 setrgbcolor
10 97.3984 455.5 204.6953 simplerect
closepath stroke
1.0 setlinewidth
0.6588 0 0.2118 setrgbcolor
newpath
33 86.2969 moveto
26{
0 5 rlineto
0 5 rmoveto
} repeat
0 3.0625 rlineto
stroke
1.0 setlinewidth
0.6588 0 0.2118 setrgbcolor
newpath
94 86.2969 moveto
26{
0 5 rlineto
0 5 rmoveto
} repeat
0 3.0625 rlineto
stroke
1.0 setlinewidth
0.6588 0 0.2118 setrgbcolor
newpath
236.5 86.2969 moveto
26{
0 5 rlineto
0 5 rmoveto
} repeat
0 3.0625 rlineto
stroke
1.0 setlinewidth
0.6588 0 0.2118 setrgbcolor
newpath
357 86.2969 moveto
26{
0 5 rlineto
0 5 rmoveto
} repeat
0 3.0625 rlineto
stroke
1.0 setlinewidth
0.6588 0 0.2118 setrgbcolor
newpath
460 86.2969 moveto
26{
0 5 rlineto
0 5 rmoveto
} repeat
0 3.0625 rlineto
stroke
0 setlinewidth
[] 0 setdash
0 0 0 setrgbcolor
newpath
13.4375 74.0264 moveto
P$0
fill
0 setlinewidth
[] 0 setdash
0 0 0 setrgbcolor
newpath
18.2344 82.9951 moveto
P$1
fill
0 setlinewidth
[] 0 setdash
0 0 0 setrgbcolor
newpath
22.2344 82.9951 moveto
P$2
20.9063 72.9951 moveto
P$3
fill
0 setlinewidth
[] 0 setdash
0 0 0 setrgbcolor
newpath
28.375 82.9951 moveto
P$4
28.0938 76.0264 moveto
P$5
fill
0 setlinewidth
[] 0 setdash
0 0 0 setrgbcolor
newpath
37.7656 82.9951 moveto
P$6
fill
0 setlinewidth
[] 0 setdash
0 0 0 setrgbcolor
newpath
43.5469 81.9639 moveto
P$7
fill
0 setlinewidth
[] 0 setdash
0 0 0 setrgbcolor
newpath
52.3906 82.9951 moveto
P$8
fill
0.7843 0.7843 0.7843 setrgbcolor
newpath
37.5 17 8 0 360 arc
closepath eofill
0.7098 0.7098 0.7098 setrgbcolor
newpath
37.5 17 7.5 0 360 arc
closepath eofill
0.6353 0.6353 0.6353 setrgbcolor
newpath
37.5 17 7 0 360 arc
closepath eofill
0.5608 0.5608 0.5608 setrgbcolor
newpath
37.5 17 6.5 0 360 arc
closepath eofill
0.4902 0.4902 0.4902 setrgbcolor
newpath
37.5 17 6 0 360 arc
closepath eofill
0.4157 0.4157 0.4157 setrgbcolor
newpath
37.5 17 5.5 0 360 arc
closepath eofill
0.3412 0.3412 0.3412 setrgbcolor
newpath
37.5 17 5 0 360 arc
closepath eofill
0.2667 0.2667 0.2667 setrgbcolor
newpath
37.5 17 4.5 0 360 arc
closepath eofill
0.1961 0.1961 0.1961 setrgbcolor
newpath
37.5 17 4 0 360 arc
closepath eofill
0.9961 0.9961 0.8078 setrgbcolor
newpath
33.5 13 8 0 360 arc
closepath eofill
2.0 setlinewidth
0.6588 0 0.2118 setrgbcolor
newpath
33.5 13 8 0 360 arc
closepath stroke
2.0 setlinewidth
0.6588 0 0.2118 setrgbcolor
newpath
33.5 21 moveto
33.5 48 lineto
20.5 29 moveto
46.5 29 lineto
33.5 48 moveto
20.5 63 lineto
33.5 48 moveto
46.5 63 lineto
stroke
0 setlinewidth
[] 0 setdash
0 0 0 setrgbcolor
newpath
74.4375 74.0264 moveto
P$0
fill
0 setlinewidth
[] 0 setdash
0 0 0 setrgbcolor
newpath
79.2344 82.9951 moveto
P$1
fill
0 setlinewidth
[] 0 setdash
0 0 0 setrgbcolor
newpath
83.2344 82.9951 moveto
P$2
81.9063 72.9951 moveto
P$3
fill
0 setlinewidth
[] 0 setdash
0 0 0 setrgbcolor
newpath
89.375 82.9951 moveto
P$4
89.0938 76.0264 moveto
P$5
fill
0 setlinewidth
[] 0 setdash
0 0 0 setrgbcolor
newpath
98.7656 82.9951 moveto
P$6
fill
0 setlinewidth
[] 0 setdash
0 0 0 setrgbcolor
newpath
104.5469 81.9639 moveto
P$7
fill
0 setlinewidth
[] 0 setdash
0 0 0 setrgbcolor
newpath
111.1875 82.9951 moveto
P$9
fill
0.7843 0.7843 0.7843 setrgbcolor
newpath
98.5 17 8 0 360 arc
closepath eofill
0.7098 0.7098 0.7098 setrgbcolor
newpath
98.5 17 7.5 0 360 arc
closepath eofill
0.6353 0.6353 0.6353 setrgbcolor
newpath
98.5 17 7 0 360 arc
closepath eofill
0.5608 0.5608 0.5608 setrgbcolor
newpath
98.5 17 6.5 0 360 arc
closepath eofill
0.4902 0.4902 0.4902 setrgbcolor
newpath
98.5 17 6 0 360 arc
closepath eofill
0.4157 0.4157 0.4157 setrgbcolor
newpath
98.5 17 5.5 0 360 arc
closepath eofill
0.3412 0.3412 0.3412 setrgbcolor
newpath
98.5 17 5 0 360 arc
closepath eofill
0.2667 0.2667 0.2667 setrgbcolor
newpath
98.5 17 4.5 0 360 arc
closepath eofill
0.1961 0.1961 0.1961 setrgbcolor
newpath
98.5 17 4 0 360 arc
closepath eofill
0.9961 0.9961 0.8078 setrgbcolor
newpath
94.5 13 8 0 360 arc
closepath eofill
2.0 setlinewidth
0.6588 0 0.2118 setrgbcolor
newpath
94.5 13 8 0 360 arc
closepath stroke
2.0 setlinewidth
0.6588 0 0.2118 setrgbcolor
newpath
94.5 21 moveto
94.5 48 lineto
81.5 29 moveto
107.5 29 lineto
94.5 48 moveto
81.5 63 lineto
94.5 48 moveto
107.5 63 lineto
stroke
0 setlinewidth
[] 0 setdash
0 0 0 setrgbcolor
newpath
200.9375 74.0264 moveto
P$0
fill
0 setlinewidth
[] 0 setdash
0 0 0 setrgbcolor
newpath
210.5 78.9795 moveto
P$a
205.7656 78.9795 moveto
P$b
fill
0 setlinewidth
[] 0 setdash
0 0 0 setrgbcolor
newpath
215.5 75.8857 moveto
P$c
219.5 75.8857 moveto
P$c
223.875 82.9951 moveto
P$4
223.5938 76.0264 moveto
P$5
fill
0 setlinewidth
[] 0 setdash
0 0 0 setrgbcolor
newpath
231.875 82.9951 moveto
P$4
231.5938 76.0264 moveto
P$5
fill
0 setlinewidth
[] 0 setdash
0 0 0 setrgbcolor
newpath
241.5 80.2607 moveto
P$d
fill
0 setlinewidth
[] 0 setdash
0 0 0 setrgbcolor
newpath
246.875 82.9951 moveto
P$4
246.5938 76.0264 moveto
P$5
fill
0 setlinewidth
[] 0 setdash
0 0 0 setrgbcolor
newpath
252.7344 82.9951 moveto
P$1
fill
0 setlinewidth
[] 0 setdash
0 0 0 setrgbcolor
newpath
256.7344 82.9951 moveto
P$1
fill
0 setlinewidth
[] 0 setdash
0 0 0 setrgbcolor
newpath
262.875 82.9951 moveto
P$4
262.5938 76.0264 moveto
P$5
fill
0 setlinewidth
[] 0 setdash
0 0 0 setrgbcolor
newpath
270.6563 74.9951 moveto
P$e
fill
0.7843 0.7843 0.7843 setrgbcolor
newpath
240.5 17 8 0 360 arc
closepath eofill
0.7098 0.7098 0.7098 setrgbcolor
newpath
240.5 17 7.5 0 360 arc
closepath eofill
0.6353 0.6353 0.6353 setrgbcolor
newpath
240.5 17 7 0 360 arc
closepath eofill
0.5608 0.5608 0.5608 setrgbcolor
newpath
240.5 17 6.5 0 360 arc
closepath eofill
0.4902 0.4902 0.4902 setrgbcolor
newpath
240.5 17 6 0 360 arc
closepath eofill
0.4157 0.4157 0.4157 setrgbcolor
newpath
240.5 17 5.5 0 360 arc
closepath eofill
0.3412 0.3412 0.3412 setrgbcolor
newpath
240.5 17 5 0 360 arc
closepath eofill
0.2667 0.2667 0.2667 setrgbcolor
newpath
240.5 17 4.5 0 360 arc
closepath eofill
0.1961 0.1961 0.1961 setrgbcolor
newpath
240.5 17 4 0 360 arc
closepath eofill
0.9961 0.9961 0.8078 setrgbcolor
newpath
236.5 13 8 0 360 arc
closepath eofill
2.0 setlinewidth
0.6588 0 0.2118 setrgbcolor
newpath
236.5 13 8 0 360 arc
closepath stroke
2.0 setlinewidth
0.6588 0 0.2118 setrgbcolor
newpath
236.5 21 moveto
236.5 48 lineto
223.5 29 moveto
249.5 29 lineto
236.5 48 moveto
223.5 63 lineto
236.5 48 moveto
249.5 63 lineto
stroke
0 setlinewidth
[] 0 setdash
0 0 0 setrgbcolor
newpath
316.4375 74.0264 moveto
P$0
fill
0 setlinewidth
[] 0 setdash
0 0 0 setrgbcolor
newpath
326 78.9795 moveto
P$a
321.2656 78.9795 moveto
P$b
fill
0 setlinewidth
[] 0 setdash
0 0 0 setrgbcolor
newpath
331 75.8857 moveto
P$c
335 75.8857 moveto
P$c
339.375 82.9951 moveto
P$4
339.0938 76.0264 moveto
P$5
fill
0 setlinewidth
[] 0 setdash
0 0 0 setrgbcolor
newpath
347.375 82.9951 moveto
P$4
347.0938 76.0264 moveto
P$5
fill
0 setlinewidth
[] 0 setdash
0 0 0 setrgbcolor
newpath
356.5156 82.9951 moveto
P$f
fill
0 setlinewidth
[] 0 setdash
0 0 0 setrgbcolor
newpath
368.1094 82.9951 moveto
P$g
366.2188 81.9639 moveto
P$h
fill
0 setlinewidth
[] 0 setdash
0 0 0 setrgbcolor
newpath
372.1563 78.9951 moveto
P$i
fill
0 setlinewidth
[] 0 setdash
0 0 0 setrgbcolor
newpath
381.375 82.9951 moveto
P$4
381.0938 76.0264 moveto
P$5
fill
0 setlinewidth
[] 0 setdash
0 0 0 setrgbcolor
newpath
389.1563 74.9951 moveto
P$j
fill
0 setlinewidth
[] 0 setdash
0 0 0 setrgbcolor
newpath
395.1875 82.9951 moveto
P$9
fill
0.7843 0.7843 0.7843 setrgbcolor
newpath
361.5 17 8 0 360 arc
closepath eofill
0.7098 0.7098 0.7098 setrgbcolor
newpath
361.5 17 7.5 0 360 arc
closepath eofill
0.6353 0.6353 0.6353 setrgbcolor
newpath
361.5 17 7 0 360 arc
closepath eofill
0.5608 0.5608 0.5608 setrgbcolor
newpath
361.5 17 6.5 0 360 arc
closepath eofill
0.4902 0.4902 0.4902 setrgbcolor
newpath
361.5 17 6 0 360 arc
closepath eofill
0.4157 0.4157 0.4157 setrgbcolor
newpath
361.5 17 5.5 0 360 arc
closepath eofill
0.3412 0.3412 0.3412 setrgbcolor
newpath
361.5 17 5 0 360 arc
closepath eofill
0.2667 0.2667 0.2667 setrgbcolor
newpath
361.5 17 4.5 0 360 arc
closepath eofill
0.1961 0.1961 0.1961 setrgbcolor
newpath
361.5 17 4 0 360 arc
closepath eofill
0.9961 0.9961 0.8078 setrgbcolor
newpath
357.5 13 8 0 360 arc
closepath eofill
2.0 setlinewidth
0.6588 0 0.2118 setrgbcolor
newpath
357.5 13 8 0 360 arc
closepath stroke
2.0 setlinewidth
0.6588 0 0.2118 setrgbcolor
newpath
357.5 21 moveto
357.5 48 lineto
344.5 29 moveto
370.5 29 lineto
357.5 48 moveto
344.5 63 lineto
357.5 48 moveto
370.5 63 lineto
stroke
0 setlinewidth
[] 0 setdash
0 0 0 setrgbcolor
newpath
419.4375 74.0264 moveto
P$0
fill
0 setlinewidth
[] 0 setdash
0 0 0 setrgbcolor
newpath
429 78.9795 moveto
P$a
424.2656 78.9795 moveto
P$b
fill
0 setlinewidth
[] 0 setdash
0 0 0 setrgbcolor
newpath
434 75.8857 moveto
P$c
438 75.8857 moveto
P$c
442.375 82.9951 moveto
P$4
442.0938 76.0264 moveto
P$5
fill
0 setlinewidth
[] 0 setdash
0 0 0 setrgbcolor
newpath
450.375 82.9951 moveto
P$4
450.0938 76.0264 moveto
P$5
fill
0 setlinewidth
[] 0 setdash
0 0 0 setrgbcolor
newpath
459.5156 82.9951 moveto
P$f
fill
0 setlinewidth
[] 0 setdash
0 0 0 setrgbcolor
newpath
471.1094 82.9951 moveto
P$g
469.2188 81.9639 moveto
P$h
fill
0 setlinewidth
[] 0 setdash
0 0 0 setrgbcolor
newpath
475.1563 78.9951 moveto
P$i
fill
0 setlinewidth
[] 0 setdash
0 0 0 setrgbcolor
newpath
484.375 82.9951 moveto
P$4
484.0938 76.0264 moveto
P$5
fill
0 setlinewidth
[] 0 setdash
0 0 0 setrgbcolor
newpath
492.1563 74.9951 moveto
P$j
fill
0 setlinewidth
[] 0 setdash
0 0 0 setrgbcolor
newpath
500.3906 82.9951 moveto
P$8
fill
0.7843 0.7843 0.7843 setrgbcolor
newpath
464.5 17 8 0 360 arc
closepath eofill
0.7098 0.7098 0.7098 setrgbcolor
newpath
464.5 17 7.5 0 360 arc
closepath eofill
0.6353 0.6353 0.6353 setrgbcolor
newpath
464.5 17 7 0 360 arc
closepath eofill
0.5608 0.5608 0.5608 setrgbcolor
newpath
464.5 17 6.5 0 360 arc
closepath eofill
0.4902 0.4902 0.4902 setrgbcolor
newpath
464.5 17 6 0 360 arc
closepath eofill
0.4157 0.4157 0.4157 setrgbcolor
newpath
464.5 17 5.5 0 360 arc
closepath eofill
0.3412 0.3412 0.3412 setrgbcolor
newpath
464.5 17 5 0 360 arc
closepath eofill
0.2667 0.2667 0.2667 setrgbcolor
newpath
464.5 17 4.5 0 360 arc
closepath eofill
0.1961 0.1961 0.1961 setrgbcolor
newpath
464.5 17 4 0 360 arc
closepath eofill
0.9961 0.9961 0.8078 setrgbcolor
newpath
460.5 13 8 0 360 arc
closepath eofill
2.0 setlinewidth
0.6588 0 0.2118 setrgbcolor
newpath
460.5 13 8 0 360 arc
closepath stroke
2.0 setlinewidth
0.6588 0 0.2118 setrgbcolor
newpath
460.5 21 moveto
460.5 48 lineto
447.5 29 moveto
473.5 29 lineto
460.5 48 moveto
447.5 63 lineto
460.5 48 moveto
473.5 63 lineto
stroke
0.7843 0.7843 0.7843 setrgbcolor
10 29.1328 232.5 118.2969 1 roundrect
closepath eofill
0.4902 0.4902 0.4902 setrgbcolor
9 28.1328 233 118.7969 1 roundrect
closepath eofill
0.1961 0.1961 0.1961 setrgbcolor
8 27.1328 233.5 119.2969 1 roundrect
closepath eofill
1 1 1 setrgbcolor
10 29.1328 231.5 117.2969 simplerect
closepath eofill
1.0 setlinewidth
0.6588 0 0.2118 setrgbcolor
10 29.1328 231.5 117.2969 simplerect
closepath stroke
0.7843 0.7843 0.7843 setrgbcolor
10 29.1328 232.5 176.5625 1 roundrect
closepath eofill
0.4902 0.4902 0.4902 setrgbcolor
9 28.1328 233 177.0625 1 roundrect
closepath eofill
0.1961 0.1961 0.1961 setrgbcolor
8 27.1328 233.5 177.5625 1 roundrect
closepath eofill
1 1 1 setrgbcolor
10 29.1328 231.5 175.5625 simplerect
closepath eofill
1.0 setlinewidth
0.6588 0 0.2118 setrgbcolor
10 29.1328 231.5 175.5625 simplerect
closepath stroke
0.7843 0.7843 0.7843 setrgbcolor
10 29.1328 232.5 244.8281 1 roundrect
closepath eofill
0.4902 0.4902 0.4902 setrgbcolor
9 28.1328 233 245.3281 1 roundrect
closepath eofill
0.1961 0.1961 0.1961 setrgbcolor
8 27.1328 233.5 245.8281 1 roundrect
closepath eofill
1 1 1 setrgbcolor
10 29.1328 231.5 243.8281 simplerect
closepath eofill
1.0 setlinewidth
0.6588 0 0.2118 setrgbcolor
10 29.1328 231.5 243.8281 simplerect
closepath stroke
0.7843 0.7843 0.7843 setrgbcolor
10 29.1328 232.5 303.0938 1 roundrect
closepath eofill
0.4902 0.4902 0.4902 setrgbcolor
9 28.1328 233 303.5938 1 roundrect
closepath eofill
0.1961 0.1961 0.1961 setrgbcolor
8 27.1328 233.5 304.0938 1 roundrect
closepath eofill
1 1 1 setrgbcolor
10 29.1328 231.5 302.0938 simplerect
closepath eofill
1.0 setlinewidth
0.6588 0 0.2118 setrgbcolor
10 29.1328 231.5 302.0938 simplerect
closepath stroke
0.7843 0.7843 0.7843 setrgbcolor
10 97.3984 353.5 147.4297 1 roundrect
closepath eofill
0.4902 0.4902 0.4902 setrgbcolor
9 96.3984 354 147.9297 1 roundrect
closepath eofill
0.1961 0.1961 0.1961 setrgbcolor
8 95.3984 354.5 148.4297 1 roundrect
closepath eofill
1 1 1 setrgbcolor
10 97.3984 352.5 146.4297 simplerect
closepath eofill
1.0 setlinewidth
0.6588 0 0.2118 setrgbcolor
10 97.3984 352.5 146.4297 simplerect
closepath stroke
0.7843 0.7843 0.7843 setrgbcolor
10 97.3984 456.5 205.6953 1 roundrect
closepath eofill
0.4902 0.4902 0.4902 setrgbcolor
9 96.3984 457 206.1953 1 roundrect
closepath eofill
0.1961 0.1961 0.1961 setrgbcolor
8 95.3984 457.5 206.6953 1 roundrect
closepath eofill
1 1 1 setrgbcolor
10 97.3984 455.5 204.6953 simplerect
closepath eofill
1.0 setlinewidth
0.6588 0 0.2118 setrgbcolor
10 97.3984 455.5 204.6953 simplerect
closepath stroke
0.6588 0 0.2118 setrgbcolor
newpath
219.5 113.2969 moveto
10 4 rlineto
-10 4 rlineto
4 -4 rlineto
219.5 113.2969 lineto
closepath eofill
1.0 setlinewidth
0.6588 0 0.2118 setrgbcolor
newpath
219.5 113.2969 moveto
10 4 rlineto
-10 4 rlineto
4 -4 rlineto
219.5 113.2969 lineto
closepath stroke
1.0 setlinewidth
0.6588 0 0.2118 setrgbcolor
newpath
94.5 117.2969 moveto
131 0 rlineto
stroke
0 setlinewidth
[] 0 setdash
0 0 0 setrgbcolor
newpath
105.6563 112.3638 moveto
P$k
fill
0 setlinewidth
[] 0 setdash
0 0 0 setrgbcolor
newpath
108.4219 103.3638 moveto
P$l
fill
0 setlinewidth
[] 0 setdash
0 0 0 setrgbcolor
newpath
110.6563 112.3638 moveto
P$m
fill
0 setlinewidth
[] 0 setdash
0 0 0 setrgbcolor
newpath
113.6563 112.3638 moveto
P$m
fill
0 setlinewidth
[] 0 setdash
0 0 0 setrgbcolor
newpath
123.3438 112.3638 moveto
P$n
fill
0 setlinewidth
[] 0 setdash
0 0 0 setrgbcolor
newpath
130.6563 112.3638 moveto
P$o
128.7031 111.4106 moveto
P$p
fill
0 setlinewidth
[] 0 setdash
0 0 0 setrgbcolor
newpath
134.8594 112.3638 moveto
P$q
fill
0 setlinewidth
[] 0 setdash
0 0 0 setrgbcolor
newpath
142.2969 112.3638 moveto
P$r
142.0781 106.3169 moveto
P$s
fill
0 setlinewidth
[] 0 setdash
0 0 0 setrgbcolor
newpath
153.6563 112.3638 moveto
P$o
151.7031 111.4106 moveto
P$p
fill
0 setlinewidth
[] 0 setdash
0 0 0 setrgbcolor
newpath
161.3438 112.3638 moveto
P$t
fill
0 setlinewidth
[] 0 setdash
0 0 0 setrgbcolor
newpath
170.2969 112.3638 moveto
P$r
170.0781 106.3169 moveto
P$s
fill
0 setlinewidth
[] 0 setdash
0 0 0 setrgbcolor
newpath
178.5 110.395 moveto
P$u
fill
0 setlinewidth
[] 0 setdash
0 0 0 setrgbcolor
newpath
183.7344 112.3638 moveto
P$v
183.5313 106.3169 moveto
P$w
fill
0 setlinewidth
[] 0 setdash
0 0 0 setrgbcolor
newpath
191.6406 105.3638 moveto
P$x
fill
0 setlinewidth
[] 0 setdash
0 0 0 setrgbcolor
newpath
196.2969 112.3638 moveto
P$r
196.0781 106.3169 moveto
P$s
fill
0 setlinewidth
[] 0 setdash
0 0 0 setrgbcolor
newpath
204.5 110.395 moveto
P$u
fill
0 setlinewidth
[] 0 setdash
0 0 0 setrgbcolor
newpath
210.5 110.395 moveto
P$u
fill
0 setlinewidth
[] 0 setdash
0 0 0 setrgbcolor
newpath
218.5 108.8481 moveto
P$y
213.6875 108.8481 moveto
P$z
fill
0.6588 0 0.2118 setrgbcolor
newpath
340.5 142.4297 moveto
10 4 rlineto
-10 4 rlineto
4 -4 rlineto
340.5 142.4297 lineto
closepath eofill
1.0 setlinewidth
0.6588 0 0.2118 setrgbcolor
newpath
340.5 142.4297 moveto
10 4 rlineto
-10 4 rlineto
4 -4 rlineto
340.5 142.4297 lineto
closepath stroke
1.0 setlinewidth
0.6588 0 0.2118 setrgbcolor
newpath
236.5 146.4297 moveto
110 0 rlineto
stroke
0 setlinewidth
[] 0 setdash
0 0 0 setrgbcolor
newpath
248.5 141.4966 moveto
P$10
fill
0 setlinewidth
[] 0 setdash
0 0 0 setrgbcolor
newpath
257.2969 141.4966 moveto
P$r
257.0781 135.4497 moveto
P$s
fill
0 setlinewidth
[] 0 setdash
0 0 0 setrgbcolor
newpath
265.5 139.5278 moveto
P$u
fill
0 setlinewidth
[] 0 setdash
0 0 0 setrgbcolor
newpath
270.7344 141.4966 moveto
P$v
270.5313 135.4497 moveto
P$w
fill
0 setlinewidth
[] 0 setdash
0 0 0 setrgbcolor
newpath
278.6406 134.4966 moveto
P$x
fill
0 setlinewidth
[] 0 setdash
0 0 0 setrgbcolor
newpath
283.2969 141.4966 moveto
P$r
283.0781 135.4497 moveto
P$s
fill
0 setlinewidth
[] 0 setdash
0 0 0 setrgbcolor
newpath
291.5 139.5278 moveto
P$u
fill
0 setlinewidth
[] 0 setdash
0 0 0 setrgbcolor
newpath
297.5 139.5278 moveto
P$u
fill
0 setlinewidth
[] 0 setdash
0 0 0 setrgbcolor
newpath
305.5 137.981 moveto
P$y
300.6875 137.981 moveto
P$z
fill
0.6588 0 0.2118 setrgbcolor
newpath
219.5 171.5625 moveto
10 4 rlineto
-10 4 rlineto
4 -4 rlineto
219.5 171.5625 lineto
closepath eofill
1.0 setlinewidth
0.6588 0 0.2118 setrgbcolor
newpath
219.5 171.5625 moveto
10 4 rlineto
-10 4 rlineto
4 -4 rlineto
219.5 171.5625 lineto
closepath stroke
1.0 setlinewidth
0.6588 0 0.2118 setrgbcolor
newpath
33.5 175.5625 moveto
192 0 rlineto
stroke
0 setlinewidth
[] 0 setdash
0 0 0 setrgbcolor
newpath
44.6563 170.6294 moveto
P$k
fill
0 setlinewidth
[] 0 setdash
0 0 0 setrgbcolor
newpath
47.4219 161.6294 moveto
P$l
fill
0 setlinewidth
[] 0 setdash
0 0 0 setrgbcolor
newpath
49.6563 170.6294 moveto
P$m
fill
0 setlinewidth
[] 0 setdash
0 0 0 setrgbcolor
newpath
52.6563 170.6294 moveto
P$m
fill
0 setlinewidth
[] 0 setdash
0 0 0 setrgbcolor
newpath
62.3438 170.6294 moveto
P$n
fill
0 setlinewidth
[] 0 setdash
0 0 0 setrgbcolor
newpath
69.6563 170.6294 moveto
P$o
67.7031 169.6763 moveto
P$p
fill
0 setlinewidth
[] 0 setdash
0 0 0 setrgbcolor
newpath
73.8594 170.6294 moveto
P$q
fill
0 setlinewidth
[] 0 setdash
0 0 0 setrgbcolor
newpath
81.2969 170.6294 moveto
P$r
81.0781 164.5825 moveto
P$s
fill
0 setlinewidth
[] 0 setdash
0 0 0 setrgbcolor
newpath
92.6563 170.6294 moveto
P$o
90.7031 169.6763 moveto
P$p
fill
0 setlinewidth
[] 0 setdash
0 0 0 setrgbcolor
newpath
101.6406 163.6294 moveto
P$x
fill
0 setlinewidth
[] 0 setdash
0 0 0 setrgbcolor
newpath
104.6563 170.6294 moveto
P$11
103.4063 162.1294 moveto
P$12
fill
0 setlinewidth
[] 0 setdash
0 0 0 setrgbcolor
newpath
110.5 168.6606 moveto
P$u
fill
0 setlinewidth
[] 0 setdash
0 0 0 setrgbcolor
newpath
114.5313 169.6763 moveto
P$13
fill
0 setlinewidth
[] 0 setdash
0 0 0 setrgbcolor
newpath
119.6406 163.6294 moveto
P$x
fill
0 setlinewidth
[] 0 setdash
0 0 0 setrgbcolor
newpath
124.2969 170.6294 moveto
P$r
124.0781 164.5825 moveto
P$s
fill
0 setlinewidth
[] 0 setdash
0 0 0 setrgbcolor
newpath
130.5313 169.6763 moveto
P$14
134.5313 169.6763 moveto
P$13
fill
0 setlinewidth
[] 0 setdash
0 0 0 setrgbcolor
newpath
142.5 167.1138 moveto
P$y
137.6875 167.1138 moveto
P$z
fill
0.6588 0 0.2118 setrgbcolor
newpath
443.5 200.6953 moveto
10 4 rlineto
-10 4 rlineto
4 -4 rlineto
443.5 200.6953 lineto
closepath eofill
1.0 setlinewidth
0.6588 0 0.2118 setrgbcolor
newpath
443.5 200.6953 moveto
10 4 rlineto
-10 4 rlineto
4 -4 rlineto
443.5 200.6953 lineto
closepath stroke
1.0 setlinewidth
0.6588 0 0.2118 setrgbcolor
newpath
236.5 204.6953 moveto
213 0 rlineto
stroke
0 setlinewidth
[] 0 setdash
0 0 0 setrgbcolor
newpath
248.5 199.7622 moveto
P$10
fill
0 setlinewidth
[] 0 setdash
0 0 0 setrgbcolor
newpath
257.6406 192.7622 moveto
P$x
fill
0 setlinewidth
[] 0 setdash
0 0 0 setrgbcolor
newpath
260.6563 199.7622 moveto
P$11
259.4063 191.2622 moveto
P$12
fill
0 setlinewidth
[] 0 setdash
0 0 0 setrgbcolor
newpath
266.5 197.7935 moveto
P$u
fill
0 setlinewidth
[] 0 setdash
0 0 0 setrgbcolor
newpath
270.5313 198.8091 moveto
P$13
fill
0 setlinewidth
[] 0 setdash
0 0 0 setrgbcolor
newpath
275.6406 192.7622 moveto
P$x
fill
0 setlinewidth
[] 0 setdash
0 0 0 setrgbcolor
newpath
280.2969 199.7622 moveto
P$r
280.0781 193.7153 moveto
P$s
fill
0 setlinewidth
[] 0 setdash
0 0 0 setrgbcolor
newpath
286.5313 198.8091 moveto
P$14
290.5313 198.8091 moveto
P$13
fill
0 setlinewidth
[] 0 setdash
0 0 0 setrgbcolor
newpath
298.5 196.2466 moveto
P$y
293.6875 196.2466 moveto
P$z
fill
0.6588 0 0.2118 setrgbcolor
newpath
252.5 239.8281 moveto
-10 4 rlineto
10 4 rlineto
-4 -4 rlineto
252.5 239.8281 lineto
closepath eofill
1.0 setlinewidth
0.6588 0 0.2118 setrgbcolor
newpath
252.5 239.8281 moveto
-10 4 rlineto
10 4 rlineto
-4 -4 rlineto
252.5 239.8281 lineto
closepath stroke
1.0 setlinewidth
0.6588 0 0.2118 setrgbcolor
newpath
246.5 243.8281 moveto
27{
2 0 rlineto
2 0 rmoveto
} repeat
2 0 rlineto
stroke
0 setlinewidth
[] 0 setdash
0 0 0 setrgbcolor
newpath
264.3906 237.8325 moveto
P$15
262.4688 237.9419 moveto
P$16
fill
0 setlinewidth
[] 0 setdash
0 0 0 setrgbcolor
newpath
273.5 235.3794 moveto
P$y
268.6875 235.3794 moveto
P$17
fill
0 setlinewidth
[] 0 setdash
0 0 0 setrgbcolor
newpath
280.3438 238.895 moveto
P$t
fill
0 setlinewidth
[] 0 setdash
0 0 0 setrgbcolor
newpath
286.2969 238.895 moveto
P$r
286.0781 232.8481 moveto
P$s
fill
0 setlinewidth
[] 0 setdash
0 0 0 setrgbcolor
newpath
296.5 232.7231 moveto
P$18
303.5 235.3794 moveto
P$y
298.6875 235.3794 moveto
P$17
fill
0 setlinewidth
[] 0 setdash
0 0 0 setrgbcolor
newpath
308.6406 231.895 moveto
P$x
fill
0 setlinewidth
[] 0 setdash
0 0 0 setrgbcolor
newpath
316 238.895 moveto
P$19
fill
0 setlinewidth
[] 0 setdash
0 0 0 setrgbcolor
newpath
320.6563 238.895 moveto
P$m
fill
0 setlinewidth
[] 0 setdash
0 0 0 setrgbcolor
newpath
323.6563 238.895 moveto
P$11
322.4063 230.395 moveto
P$12
fill
0 setlinewidth
[] 0 setdash
0 0 0 setrgbcolor
newpath
328.2969 238.895 moveto
P$r
328.0781 232.8481 moveto
P$s
fill
0 setlinewidth
[] 0 setdash
0 0 0 setrgbcolor
newpath
337.3438 238.895 moveto
P$t
fill
0 setlinewidth
[] 0 setdash
0 0 0 setrgbcolor
newpath
342.5313 237.9419 moveto
P$13
fill
0 setlinewidth
[] 0 setdash
0 0 0 setrgbcolor
newpath
348.5 238.895 moveto
P$1a
fill
0.6588 0 0.2118 setrgbcolor
newpath
105.5 268.9609 moveto
-10 4 rlineto
10 4 rlineto
-4 -4 rlineto
105.5 268.9609 lineto
closepath eofill
1.0 setlinewidth
0.6588 0 0.2118 setrgbcolor
newpath
105.5 268.9609 moveto
-10 4 rlineto
10 4 rlineto
-4 -4 rlineto
105.5 268.9609 lineto
closepath stroke
1.0 setlinewidth
0.6588 0 0.2118 setrgbcolor
newpath
99.5 272.9609 moveto
34{
2 0 rlineto
2 0 rmoveto
} repeat
stroke
0 setlinewidth
[] 0 setdash
0 0 0 setrgbcolor
newpath
115.2969 268.0278 moveto
P$r
115.0781 261.981 moveto
P$s
fill
0 setlinewidth
[] 0 setdash
0 0 0 setrgbcolor
newpath
124.3438 268.0278 moveto
P$1b
126.5 271.0278 moveto
P$1c
127.4063 259.5278 moveto
P$12
fill
0 setlinewidth
[] 0 setdash
0 0 0 setrgbcolor
newpath
136.5 264.5122 moveto
P$y
131.6875 264.5122 moveto
P$17
fill
0 setlinewidth
[] 0 setdash
0 0 0 setrgbcolor
newpath
137.25 261.0278 moveto
P$1d
fill
0 setlinewidth
[] 0 setdash
0 0 0 setrgbcolor
newpath
145.5469 265.0278 moveto
P$1e
144.5 267.0278 moveto
P$1f
fill
0.6588 0 0.2118 setrgbcolor
newpath
252.5 298.0938 moveto
-10 4 rlineto
10 4 rlineto
-4 -4 rlineto
252.5 298.0938 lineto
closepath eofill
1.0 setlinewidth
0.6588 0 0.2118 setrgbcolor
newpath
252.5 298.0938 moveto
-10 4 rlineto
10 4 rlineto
-4 -4 rlineto
252.5 298.0938 lineto
closepath stroke
1.0 setlinewidth
0.6588 0 0.2118 setrgbcolor
newpath
246.5 302.0938 moveto
53{
2 0 rlineto
2 0 rmoveto
} repeat
1 0 rlineto
stroke
0 setlinewidth
[] 0 setdash
0 0 0 setrgbcolor
newpath
264.3906 296.0981 moveto
P$15
262.4688 296.2075 moveto
P$16
fill
0 setlinewidth
[] 0 setdash
0 0 0 setrgbcolor
newpath
273.5 293.645 moveto
P$y
268.6875 293.645 moveto
P$17
fill
0 setlinewidth
[] 0 setdash
0 0 0 setrgbcolor
newpath
280.3438 297.1606 moveto
P$t
fill
0 setlinewidth
[] 0 setdash
0 0 0 setrgbcolor
newpath
286.2969 297.1606 moveto
P$r
286.0781 291.1138 moveto
P$s
fill
0 setlinewidth
[] 0 setdash
0 0 0 setrgbcolor
newpath
296.5 290.9888 moveto
P$18
303.5 293.645 moveto
P$y
298.6875 293.645 moveto
P$17
fill
0 setlinewidth
[] 0 setdash
0 0 0 setrgbcolor
newpath
308.6406 290.1606 moveto
P$x
fill
0 setlinewidth
[] 0 setdash
0 0 0 setrgbcolor
newpath
316 297.1606 moveto
P$19
fill
0 setlinewidth
[] 0 setdash
0 0 0 setrgbcolor
newpath
320.6563 297.1606 moveto
P$m
fill
0 setlinewidth
[] 0 setdash
0 0 0 setrgbcolor
newpath
323.6563 297.1606 moveto
P$11
322.4063 288.6606 moveto
P$12
fill
0 setlinewidth
[] 0 setdash
0 0 0 setrgbcolor
newpath
328.2969 297.1606 moveto
P$r
328.0781 291.1138 moveto
P$s
fill
0 setlinewidth
[] 0 setdash
0 0 0 setrgbcolor
newpath
337.3438 297.1606 moveto
P$t
fill
0 setlinewidth
[] 0 setdash
0 0 0 setrgbcolor
newpath
342.5313 296.2075 moveto
P$13
fill
0 setlinewidth
[] 0 setdash
0 0 0 setrgbcolor
newpath
352.875 297.1606 moveto
P$1g
fill
0.6588 0 0.2118 setrgbcolor
newpath
44.5 327.2266 moveto
-10 4 rlineto
10 4 rlineto
-4 -4 rlineto
44.5 327.2266 lineto
closepath eofill
1.0 setlinewidth
0.6588 0 0.2118 setrgbcolor
newpath
44.5 327.2266 moveto
-10 4 rlineto
10 4 rlineto
-4 -4 rlineto
44.5 327.2266 lineto
closepath stroke
1.0 setlinewidth
0.6588 0 0.2118 setrgbcolor
newpath
38.5 331.2266 moveto
49{
2 0 rlineto
2 0 rmoveto
} repeat
1 0 rlineto
stroke
0 setlinewidth
[] 0 setdash
0 0 0 setrgbcolor
newpath
54.2969 326.2935 moveto
P$r
54.0781 320.2466 moveto
P$s
fill
0 setlinewidth
[] 0 setdash
0 0 0 setrgbcolor
newpath
63.3438 326.2935 moveto
P$1b
65.5 329.2935 moveto
P$1c
66.4063 317.7935 moveto
P$12
fill
0 setlinewidth
[] 0 setdash
0 0 0 setrgbcolor
newpath
75.5 322.7778 moveto
P$y
70.6875 322.7778 moveto
P$17
fill
0 setlinewidth
[] 0 setdash
0 0 0 setrgbcolor
newpath
76.25 319.2935 moveto
P$1d
fill
0 setlinewidth
[] 0 setdash
0 0 0 setrgbcolor
newpath
84.5469 323.2935 moveto
P$1e
83.5 325.2935 moveto
P$1f
fill
grestore
showpage
%plantuml done
%%EOF
